Q4の目標設定
期間→前半6/22-7/22、後半8/1-8/31


●コンピテンシー
・チャレンジ性
→プログラミング学習
→10時までの時間
「1」…日平均0.3時間以上。
「2」…日平均0.4時間以上。
「3」…日平均0.5時間以上。
「4」…「+1」。

・自律志向
→塩見：1（ヘルプ）
→太田：1（ヘルプ）
→坂口：1（ヘルプ）
→大平：1（テスト項目整理）
「1」…日平均0.6時間以上。
「2」…日平均0.8時間以上。
「3」…日平均1時間以上。
「4」…成果次第で「+1」。


・業務改善（Q4中にこなす業務）
→塩見：4.5（管理業務（2.5）、全コマンドテスト（1.5）、質問（0.5））
→太田：4.5（全コマンドテスト・インストーラの作成・ライセンス認証テスト(4)、質問（0.5））
→坂口：4.5（全コマンドテスト（4）、質問（0.5））
→大平：4.5（全コマンドテスト・重点テスト（4）質問（0.5））
「1」…日平均2.7時間以上。
「2」…日平均3.6時間以上。
「3」…日平均4.5時間以上。
「4」…成果次第で「+1」。


●MBO
・MBO1（）
塩見、太田、坂口⇒前半を継続（プログラミング学習とアプリ作成）
大平⇒テスト項目の整理


・MBO2（業務改善の成果）
→全コマンドテストの進捗で評価
→１日の目安処理件数（全体400、塩見15、大平80、太田135、坂口170）
「1」…日平均320件未満。
「2」…日平均320件以上350件未満。
「3」…日平均350件以上380件未満。
「4」…日平均380件以上410件未満。
「5」…日平均410件以上。


→評価（全体共通）：件数の合計で評価。チーム全体共通。
品質の確保と信頼性のため、丁寧にテストできたら「+1」。（各自判断）
